<?xml version="1.0" encoding="UTF-8" standalone="no"?>
<!-- Created with Inkscape (http://www.inkscape.org/) -->

<svg
   xmlns:dc="http://purl.org/dc/elements/1.1/"
   xmlns:cc="http://creativecommons.org/ns#"
   xmlns:rdf="http://www.w3.org/1999/02/22-rdf-syntax-ns#"
   xmlns:svg="http://www.w3.org/2000/svg"
   xmlns="http://www.w3.org/2000/svg"
   xmlns:sodipodi="http://sodipodi.sourceforge.net/DTD/sodipodi-0.dtd"
   xmlns:inkscape="http://www.inkscape.org/namespaces/inkscape"
   version="1.1"
   id="svg834"
   xml:space="preserve"
   width="101.59929"
   height="79.536278"
   viewBox="0 0 101.59929 79.536277"
   sodipodi:docname="clease_logo_no_text.svg"
   inkscape:version="0.92.5 (2060ec1f9f, 2020-04-08)"><metadata
     id="metadata840"><rdf:RDF><cc:Work
         rdf:about=""><dc:format>image/svg+xml</dc:format><dc:type
           rdf:resource="http://purl.org/dc/dcmitype/StillImage" /><dc:title></dc:title></cc:Work></rdf:RDF></metadata><defs
     id="defs838" /><sodipodi:namedview
     pagecolor="#ffffff"
     bordercolor="#666666"
     borderopacity="1"
     objecttolerance="10"
     gridtolerance="10"
     guidetolerance="10"
     inkscape:pageopacity="0"
     inkscape:pageshadow="2"
     inkscape:window-width="2488"
     inkscape:window-height="1376"
     id="namedview836"
     showgrid="false"
     inkscape:zoom="1.3333373"
     inkscape:cx="-1.6619495"
     inkscape:cy="-90.295025"
     inkscape:window-x="1992"
     inkscape:window-y="27"
     inkscape:window-maximized="1"
     inkscape:current-layer="g842"
     fit-margin-top="0"
     fit-margin-left="0"
     fit-margin-right="0"
     fit-margin-bottom="0" /><g
     id="g842"
     inkscape:groupmode="layer"
     inkscape:label="clease_logo_no_text"
     transform="scale(1.3333333)"><g
       id="g844"
       transform="scale(0.24667206)"><path
         d="m 71.031,27.68 c 0.61,2.57 0.938,5.25 0.969,8 h 164.91 c 0.031,-2.75 0.36,-5.43 0.969,-8 z M 56.77,65.41 c -2.18,1.539 -4.54,2.852 -7.051,3.879 L 128.25,181.27 c 1.82,-1.961 3.871,-3.719 6.102,-5.231 z m 195.511,0.102 -77.511,110.527 c 2.23,1.512 4.281,3.27 6.101,5.231 L 259.352,69.352 c -2.512,-1.012 -4.883,-2.313 -7.071,-3.84"
         style="fill:#000000;fill-opacity:1;fill-rule:nonzero;stroke:none"
         id="path846"
         inkscape:connector-curvature="0" /><path
         d="M 53.32,60.488 C 51.141,62.039 48.738,63.301 46.18,64.23 43,65.379 39.578,66 36,66 19.43,66 6,52.57 6,36 6,19.43 19.43,6 36,6 c 13.68,0 25.219,9.148 28.82,21.68 0.739,2.539 1.149,5.218 1.168,8 C 66,35.789 66,35.891 66,36 66,46.121 60.988,55.059 53.32,60.488 M 71.031,27.68 C 67.281,11.809 53.02,0 36,0 16.121,0 0,16.121 0,36 0,55.879 16.121,72 36,72 40.859,72 45.488,71.039 49.719,69.289 52.23,68.262 54.59,66.949 56.77,65.41 65.98,58.891 72,48.141 72,36 v -0.32 c -0.031,-2.75 -0.359,-5.43 -0.969,-8"
         style="fill:#000000;fill-opacity:1;fill-rule:nonzero;stroke:none"
         id="path848"
         inkscape:connector-curvature="0" /><path
         d="M 66,36 C 66,46.121 60.988,55.059 53.32,60.488 51.141,62.039 48.738,63.301 46.18,64.23 43,65.379 39.582,66 36,66 19.43,66 6,52.57 6,36 6,19.43 19.43,6 36,6 c 13.68,0 25.219,9.148 28.82,21.68 0.739,2.539 1.149,5.218 1.168,8 C 66,35.789 66,35.891 66,36"
         style="fill:#eedf21;fill-opacity:1;fill-rule:nonzero;stroke:none"
         id="path850"
         inkscape:connector-curvature="0" /><path
         d="m 154.559,235.828 c -16.571,0 -30,-13.437 -30,-30 0,-7.449 2.722,-14.269 7.23,-19.508 1.742,-2.05 3.762,-3.859 6,-5.371 4.793,-3.23 10.563,-5.121 16.77,-5.121 6.211,0 11.98,1.891 16.773,5.121 2.227,1.512 4.258,3.313 6,5.36 4.508,5.242 7.227,12.062 7.227,19.519 0,16.563 -13.43,30 -30,30 m 26.312,-54.558 c -1.82,-1.961 -3.871,-3.719 -6.101,-5.231 -5.758,-3.918 -12.719,-6.211 -20.211,-6.211 -7.489,0 -14.45,2.293 -20.207,6.211 -2.231,1.512 -4.282,3.27 -6.102,5.231 -6.02,6.421 -9.691,15.058 -9.691,24.558 0,19.883 16.121,36 36,36 19.882,0 36,-16.117 36,-36 0,-9.5 -3.668,-18.137 -9.688,-24.558"
         style="fill:#000000;fill-opacity:1;fill-rule:nonzero;stroke:none"
         id="path852"
         inkscape:connector-curvature="0" /><path
         d="m 184.559,205.832 c 0,16.559 -13.43,30 -30,30 -16.571,0 -30,-13.441 -30,-30 0,-7.453 2.722,-14.273 7.23,-19.512 1.742,-2.05 3.762,-3.859 6,-5.371 4.793,-3.23 10.563,-5.117 16.77,-5.117 6.211,0 11.98,1.887 16.773,5.117 2.227,1.512 4.258,3.313 6,5.36 4.508,5.242 7.227,12.062 7.227,19.523"
         style="fill:#d82a29;fill-opacity:1;fill-rule:nonzero;stroke:none"
         id="path854"
         inkscape:connector-curvature="0" /><path
         d="m 272.91,66 c -3.512,0 -6.879,-0.602 -10.012,-1.719 -2.57,-0.902 -4.98,-2.152 -7.168,-3.691 V 60.582 C 247.98,55.172 242.91,46.18 242.91,36 c 0,-0.109 0,-0.211 0.008,-0.32 0.023,-2.782 0.434,-5.461 1.172,-8 C 247.691,15.148 259.23,6 272.91,6 c 16.57,0 30,13.43 30,30 0,16.57 -13.43,30 -30,30 m 0,-66 c -17.019,0 -31.281,11.809 -35.031,27.68 -0.609,2.57 -0.938,5.25 -0.969,8 V 36 c 0,12.211 6.078,23 15.371,29.512 2.192,1.527 4.559,2.828 7.071,3.84 4.179,1.707 8.757,2.648 13.558,2.648 19.879,0 36,-16.121 36,-36 0,-19.879 -16.121,-36 -36,-36"
         style="fill:#000000;fill-opacity:1;fill-rule:nonzero;stroke:none"
         id="path856"
         inkscape:connector-curvature="0" /><path
         d="m 302.91,36 c 0,16.57 -13.43,30 -30,30 -3.512,0 -6.879,-0.602 -10.012,-1.719 -2.57,-0.902 -4.98,-2.152 -7.168,-3.691 V 60.582 C 247.98,55.172 242.91,46.18 242.91,36 c 0,-0.109 0,-0.211 0.008,-0.32 0.023,-2.782 0.434,-5.461 1.172,-8 C 247.691,15.148 259.23,6 272.91,6 c 16.57,0 30,13.43 30,30"
         style="fill:#008342;fill-opacity:1;fill-rule:nonzero;stroke:none"
         id="path858"
         inkscape:connector-curvature="0" /></g></g></svg>
